{
	"info": {
		"_postman_id": "246edd12-7ecb-4fff-ad3e-6dab5685f83f",
		"name": "mybackend",
		"schema": "https://schema.getpostman.com/json/collection/v2.1.0/collection.json"
	},
	"item": [
		{
			"name": "jobposting",
			"item": [
				{
					"name": "ค้นหางานด้วย keyword ว่า Python Programmer",
					"event": [
						{
							"listen": "test",
							"script": {
								"exec": [
									"pm.test(\"Status code is 200\", function () {",
									"    pm.response.to.have.status(200);",
									"});",
									"pm.test(\"ข้อมูลแถวที่ 1 จะต้องเป็น Python Programmer ID:1\", function () {",
									"    var jsonData = pm.response.json();",
									"    pm.expect(jsonData[0].name).to.eql(\" Python Programmer\");",
									"    pm.expect(jsonData[0]._id).to.eql(1);",
									"});"
								],
								"type": "text/javascript"
							}
						}
					],
					"request": {
						"method": "GET",
						"header": [],
						"url": {
							"raw": "localhost:3000/jobPostings/search/Programmer",
							"host": [
								"localhost"
							],
							"port": "3000",
							"path": [
								"jobPostings",
								"search",
								"Programmer"
							]
						}
					},
					"response": []
				},
				{
					"name": "ดูรายละเอียดงาน ID 1 Python Programmer",
					"event": [
						{
							"listen": "test",
							"script": {
								"exec": [
									"pm.test(\"Status code is 200\", function () {",
									"    pm.response.to.have.status(200);",
									"});",
									"pm.test(\"Job Id ต้องเป็น 1\", function () {",
									"    var jsonData = pm.response.json();",
									"    pm.expect(jsonData._id).to.eql(1);",
									"});",
									"pm.test(\"ชื่อ ต้องเป็น Python Programmer\", function () {",
									"    var jsonData = pm.response.json();",
									"    pm.expect(jsonData.name).to.eql(\" Python Programmer\");",
									"});",
									"pm.test(\"Company Id ต้องเป็น 1\", function () {",
									"    var jsonData = pm.response.json();",
									"    pm.expect(jsonData.companyId).to.eql(1);",
									"});"
								],
								"type": "text/javascript"
							}
						}
					],
					"request": {
						"method": "GET",
						"header": [],
						"url": {
							"raw": "localhost:3000/jobPostings/1",
							"host": [
								"localhost"
							],
							"port": "3000",
							"path": [
								"jobPostings",
								"1"
							]
						}
					},
					"response": []
				},
				{
					"name": "สมัครงาน Python Programmer สำเร็จ",
					"event": [
						{
							"listen": "test",
							"script": {
								"exec": [
									"pm.test(\"Status code is 200\", function () {",
									"    pm.response.to.have.status(200);",
									"});",
									"pm.test(\"message ต้องเป็น Applied Job\", function () {",
									"    var jsonData = pm.response.json();",
									"    pm.expect(jsonData.message).to.eql(\"Applied Job\");",
									"});"
								],
								"type": "text/javascript"
							}
						}
					],
					"request": {
						"method": "POST",
						"header": [],
						"body": {
							"mode": "raw",
							"raw": " {\n    \"name\": \"Worawit\",\n    \"jobPostingId\":1,\n    \"age\":28,\n    \"gender\":1,\n    \"experience\":2,\n    \"detail\": {}\n}",
							"options": {
								"raw": {
									"language": "json"
								}
							}
						},
						"url": {
							"raw": "localhost:3000/jobPostings/1/apply",
							"host": [
								"localhost"
							],
							"port": "3000",
							"path": [
								"jobPostings",
								"1",
								"apply"
							]
						}
					},
					"response": []
				},
				{
					"name": "อายุน้อยกว่าเกณฑ์ที่กำหนด",
					"event": [
						{
							"listen": "test",
							"script": {
								"exec": [
									"pm.test(\"Status code is 422\", function () {",
									"    pm.response.to.have.status(422);",
									"});",
									"pm.test(\"message ต้องเป็น Age out of range\", function () {",
									"    var jsonData = pm.response.json();",
									"    pm.expect(jsonData.message).to.eql(\"Age out of range\");",
									"});"
								],
								"type": "text/javascript"
							}
						}
					],
					"request": {
						"method": "POST",
						"header": [],
						"body": {
							"mode": "raw",
							"raw": " {\n    \"name\": \"Worawit\",\n    \"jobPostingId\":1,\n    \"age\":24,\n    \"gender\":1,\n    \"experience\":2,\n    \"detail\": {}\n}",
							"options": {
								"raw": {
									"language": "json"
								}
							}
						},
						"url": {
							"raw": "localhost:3000/jobPostings/1/apply",
							"host": [
								"localhost"
							],
							"port": "3000",
							"path": [
								"jobPostings",
								"1",
								"apply"
							]
						}
					},
					"response": []
				},
				{
					"name": "ประสบการณ์น้อยกว่าเกรณฑ์ที่กำหนด",
					"event": [
						{
							"listen": "test",
							"script": {
								"exec": [
									"pm.test(\"Status code is 422\", function () {",
									"    pm.response.to.have.status(422);",
									"});",
									"pm.test(\"message ต้องเป็น Not enough experience\", function () {",
									"    var jsonData = pm.response.json();",
									"    pm.expect(jsonData.message).to.eql(\"Not enough experience\");",
									"});"
								],
								"type": "text/javascript"
							}
						}
					],
					"request": {
						"method": "POST",
						"header": [],
						"body": {
							"mode": "raw",
							"raw": " {\n    \"name\": \"Worawit\",\n    \"jobPostingId\":1,\n    \"age\":28,\n    \"gender\":1,\n    \"experience\":1,\n    \"detail\": {}\n}",
							"options": {
								"raw": {
									"language": "json"
								}
							}
						},
						"url": {
							"raw": "localhost:3000/jobPostings/1/apply",
							"host": [
								"localhost"
							],
							"port": "3000",
							"path": [
								"jobPostings",
								"1",
								"apply"
							]
						}
					},
					"response": []
				},
				{
					"name": "เพศไม่ตรงตามเงื่อนไข",
					"event": [
						{
							"listen": "test",
							"script": {
								"exec": [
									"pm.test(\"Status code is 422\", function () {",
									"    pm.response.to.have.status(422);",
									"});",
									"pm.test(\"message ต้องเป็น Gender does not meet the conditions\", function () {",
									"    var jsonData = pm.response.json();",
									"    pm.expect(jsonData.message).to.eql(\"Gender does not meet the conditions\");",
									"});"
								],
								"type": "text/javascript"
							}
						}
					],
					"request": {
						"method": "POST",
						"header": [],
						"body": {
							"mode": "raw",
							"raw": " {\n    \"name\": \"Sunee\",\n    \"jobPostingId\":1,\n    \"age\":28,\n    \"gender\":2,\n    \"experience\":2,\n    \"detail\": {}\n}",
							"options": {
								"raw": {
									"language": "json"
								}
							}
						},
						"url": {
							"raw": "localhost:3000/jobPostings/1/apply",
							"host": [
								"localhost"
							],
							"port": "3000",
							"path": [
								"jobPostings",
								"1",
								"apply"
							]
						}
					},
					"response": []
				}
			]
		}
	]
}